Estudo de caso - Como uma empresa de tecnologia de bem-estar pode agir com inteligência?
…
Análise de intensidade por hora

# Média de intensidade por hora

intensidade_uso_media_por_hora <- conjunto_de_dados_com_horas %>%
  group_by(Hora) %>%
  summarise(media_intensidade = mean(TotalIntensity))
print(intensidade_uso_media_por_hora)

## # A tibble: 25 × 2
##    Hora        media_intensidade
##    <chr>                   <dbl>
##  1 10:00:00 AM            16.5  
##  2 10:00:00 PM             7.87 
##  3 11:00:00 AM            17.2  
##  4 11:00:00 PM             4.98 
##  5 12:00:00 AM             2.62 
##  6 12:00:00 PM            19.6  
##  7 1:00:00 AM              1.43 
##  8 1:00:00 PM             17.0  
##  9 2:00:00 AM              0.821
## 10 2:00:00 PM             18.0  
## # ℹ 15 more rows

# Ordenar por intensidade

intensidade_media_por_hora <- intensidade_uso_media_por_hora %>% arrange(desc(media_intensidade))
print(intensidade_media_por_hora)

## # A tibble: 25 × 2
##    Hora        media_intensidade
##    <chr>                   <dbl>
##  1 7:00:00 PM               20.4
##  2 12:00:00 PM              19.6
##  3 6:00:00 PM               19.5
##  4 5:00:00 PM               19.0
##  5 2:00:00 PM               18.0
##  6 4:00:00 PM               17.5
##  7 11:00:00 AM              17.2
##  8 1:00:00 PM               17.0
##  9 10:00:00 AM              16.5
## 10 8:00:00 PM               15.9
## # ℹ 15 more rows
…
## # A tibble: 1 × 2
##   DiaSemana Total_Minutos_Ativos
##   <chr>                    <dbl>
## 1 Tuesday                   115.

Análise de usuários ativos e menos ativos

# Média de passos por usuário

media_passos_por_usuario <- conjunto_de_dados_com_horas %>%
  group_by(Id) %>%
  summarise(Media_Passos = mean(TotalSteps))
print(media_passos_por_usuario)

## # A tibble: 33 × 2
##            Id Media_Passos
##         <dbl>        <dbl>
##  1 1503960366       12117.
##  2 1624580081        5744.
##  3 1644430081        7283.
##  4 1844505072        2580.
##  5 1927972279         916.
##  6 2022484408       11371.
##  7 2026352035        5567.
##  8 2320127002        4717.
##  9 2347167796        9520.
## 10 2873212765        7556.
## # ℹ 23 more rows

# Classificação de usuários

limite_atividade <- 8000
media_passos_por_usuario$Classificacao <- ifelse(media_passos_por_usuario$Media_Passos >= limite_atividade, "Ativo", "Menos ativo")
print(media_passos_por_usuario)

## # A tibble: 33 × 3
##            Id Media_Passos Classificacao
##         <dbl>        <dbl> <chr>        
##  1 1503960366       12117. Ativo        
##  2 1624580081        5744. Menos ativo  
##  3 1644430081        7283. Menos ativo  
##  4 1844505072        2580. Menos ativo  
##  5 1927972279         916. Menos ativo  
##  6 2022484408       11371. Ativo        
##  7 2026352035        5567. Menos ativo  
##  8 2320127002        4717. Menos ativo  
##  9 2347167796        9520. Ativo        
## 10 2873212765        7556. Menos ativo  
## # ℹ 23 more rows
…
